[
    {
        "id": "Н",
        "collection": [
            {
                "id": "-----",
                "value": "Устойчивость функционирования",
                "children": [
                    {
                        "id": "1",
                        "value": "Средства восстановления при ошибках на входе",
                        "metric": "Н"
                    },
                    {
                        "id": "2",
                        "value": "Средства восстановления при сбоях оборудования",
                        "metric": "Н"
                    },
                    {
                        "id": "3",
                        "value": "Реализация управления средствами восстановления",
                        "metric": "Н"
                    }
                ]
            },
            {
                "id": "-----",
                "value": "Работоспособность",
                "metric": "Н",
                "children": [
                    {
                        "id": "4",
                        "value": "Функционирование в заданных режимах",
                        "metric": "Н"
                    },
                    {
                        "id": "5",
                        "value": "Обеспечение обработки заданного объёма информации",
                        "metric": "Н"
                    }
                ]
            }
        ]
    },
    {
        "id": "C",
        "collection": [
            {
                "id": "-----",
                "value": "Структурность",
                "metric": "C",
                "children": [
                    {
                        "id": "5",
                        "value": "Использование основных логических структур",
                        "metric": "C"
                    },
                    {
                        "id": "6",
                        "value": "Соблюдение принципе нисходящего программирования",
                        "metric": "C"
                    },
                    {
                        "id": "7",
                        "value": "Комментарии обостования декомпозиции программ при кодировании",
                        "metric": "C"
                    }
                ]
            },
            {
                "id": "-----",
                "value": "Простота конструкции",
                "metric": "C",
                "children": [
                    {
                        "id": "1",
                        "value": "Простота архитектуры проекта",
                        "metric": "C"
                    },
                    {
                        "id": "2",
                        "value": "Сложность архитектуры проекта",
                        "metric": "C"
                    }
                ]
            },
            {
                "id": "-----",
                "value": "Наглядность",
                "metric": "C",
                "children": [
                    {
                        "id": "4",
                        "value": "Принятая система идентификации",
                        "metric": "C"
                    },
                    {
                        "id": "8",
                        "value": "Комментарии логики программ проекта",
                        "metric": "C"
                    },
                    {
                        "id": "9",
                        "value": "Оформление текста программ",
                        "metric": "C"
                    }
                ]
            },
            {
                "id": "-----",
                "value": "Повторяемость",
                "metric": "C",
                "children": []
            },
            {
                "id": "-----",
                "value": "",
                "metric": "C"
            }
        ]
    },
    {
        "id": "У",
        "collection": [
            {
                "id": "-----",
                "value": "Легкость освоения",
                "metric": "У",
                "children": [
                    {
                        "id": "1",
                        "value": "Освоение работы ПС",
                        "metric": "У"
                    },
                    {
                        "id": "2",
                        "value": "Документация для освоения",
                        "metric": "У"
                    },
                    {
                        "id": "3",
                        "value": "Полнота пользовательской документации",
                        "metric": "У"
                    }
                ]
            },
            {
                "id": "-----",
                "value": "Доступность эксплуатационных программных документов",
                "metric": "У",
                "children": []
            },
            {
                "id": "-----",
                "value": "Доступность эксплуатационных программных документов",
                "metric": "У",
                "children": [
                    {
                        "id": "4",
                        "value": "Точность пользовательской документации",
                        "metric": "У"
                    },
                    {
                        "id": "5",
                        "value": "Понятность пользовательской документации",
                        "metric": "У"
                    },
                    {
                        "id": "6",
                        "value": "Техническое исполнение пользовательской документации",
                        "metric": "У"
                    },
                    {
                        "id": "7",
                        "value": "Прослеживание вариантов пользовательской документации",
                        "metric": "У"
                    }
                ]
            },
            {
                "id": "-----",
                "value": "Удобство обслуживания и эксплуатации",
                "metric": "У",
                "children": [
                    {
                        "id": "8",
                        "value": "Экслуатация",
                        "metric": "У"
                    },
                    {
                        "id": "9",
                        "value": "Управление меню",
                        "metric": "У"
                    },
                    {
                        "id": "10",
                        "value": "Функция HELB",
                        "metric": "У"
                    },
                    {
                        "id": "11",
                        "value": "Управление данными",
                        "metric": "У"
                    },
                    {
                        "id": "12",
                        "value": "Рабочие процедуры (JOBS)",
                        "metric": "У"
                    }
                ]
            }
        ]
    },
    {
        "id": "Э",
        "collection": [
            {
                "id": "-----",
                "value": "Уровень автоматизации",
                "metric": "Э"
            },
            {
                "id": "-----",
                "value": "Временная эффективность",
                "metric": "Э"
            },
            {
                "id": "-----",
                "value": "Ресурсоемкость",
                "metric": "Э"
            }
        ]
    },
    {
        "id": "Г",
        "collection": [
            {
                "id": "-----",
                "value": "Гибкость",
                "metric": "Г",
                "children": [
                    {
                        "id": "1",
                        "value": "Широта охвата функций",
                        "metric": "Г"
                    },
                    {
                        "id": "2",
                        "value": "Простота архитектуры проекта",
                        "metric": "Г"
                    },
                    {
                        "id": "3",
                        "value": "Сложность архитектуры проекта",
                        "metric": "Г"
                    },
                    {
                        "id": "4",
                        "value": "Сложность структуры программы кода",
                        "metric": "Г"
                    },
                    {
                        "id": "5",
                        "value": "Применение стандартных протоколов связи",
                        "metric": "Г"
                    },
                    {
                        "id": "6",
                        "value": "Применение стандартных интерфейсных программ",
                        "metric": "Г"
                    }
                ]
            },
            {
                "id": "-----",
                "value": "Мобильность",
                "metric": "Г",
                "children": [
                    {
                        "id": "7",
                        "value": "Зависимость от используемого комплекса технических средств",
                        "metric": "Г"
                    },
                    {
                        "id": "8",
                        "value": "Зависимость от базового программного обеспечения",
                        "metric": "Г"
                    },
                    {
                        "id": "9",
                        "value": "Изоляция немобильности",
                        "metric": "Г"
                    }
                ]
            },
            {
                "id": "-----",
                "value": "Модифицируемость",
                "metric": "Г",
                "children": [
                    {
                        "id": "10",
                        "value": "Простота кодирования",
                        "metric": "Г"
                    },
                    {
                        "id": "11",
                        "value": "Число комментариев",
                        "metric": "Г"
                    },
                    {
                        "id": "12",
                        "value": "Качество комментариев",
                        "metric": "Г"
                    },
                    {
                        "id": "13",
                        "value": "Использование описательных средств языка",
                        "metric": "Г"
                    },
                    {
                        "id": "14",
                        "value": "Независимость модулей",
                        "metric": "Г"
                    }
                ]
            }
        ]
    },
    {
        "id": "К",
        "collection": [
            {
                "id": "-----",
                "value": "Полнота реализации",
                "metric": "К",
                "children": [
                    {
                        "id": "1",
                        "value": "Полнота документации разработчика",
                        "metric": "К"
                    },
                    {
                        "id": "2",
                        "value": "Полнота программной документации",
                        "metric": "К"
                    }
                ]
            },
            {
                "id": "-----",
                "value": "Согласованность",
                "metric": "К",
                "children": [
                    {
                        "id": "9",
                        "value": "Соответствие изменений, внесённых в программу, изменениям в документации",
                        "metric": "К"
                    },
                    {
                        "id": "6",
                        "value": "Единообразие кодирования и определения переменных",
                        "metric": "К"
                    }
                ]
            },
            {
                "id": "-----",
                "value": "Логическая корректность",
                "metric": "К",
                "children": [
                    {
                        "id": "10",
                        "value": "Полнота тестирования проекта",
                        "metric": "К"
                    }
                ]
            },
            {
                "id": "-----",
                "value": "Проверенность",
                "metric": "К",
                "children": [
                    {
                        "id": "12",
                        "value": "Отсутствие явных ошибок и достаточность реквизитов",
                        "metric": "К"
                    }
                ]
            }
        ]
    }
]